[gd_scene load_steps=3 format=1]

[ext_resource path="res://scripts/error.gd" type="Script" id=1]
[ext_resource path="res://fonts/nombre_40.fnt" type="BitmapFont" id=2]

[node name="Node2D" type="Node2D"]

script/script = ExtResource( 1 )
__meta__ = { "__editor_plugin_screen__":"2D" }

[node name="message" type="Label" parent="."]

focus/ignore_mouse = true
focus/stop_mouse = true
size_flags/horizontal = 2
size_flags/vertical = 0
margin/left = 0.0
margin/top = 0.0
margin/right = 40.0
margin/bottom = 13.0
custom_fonts/font = ExtResource( 2 )
text = "Oups!"
percent_visible = 1.0
lines_skipped = 0
max_lines_visible = -1


