{
  "app-id": "org.freedesktop.dabrain34.squared",
  "runtime": "org.freedesktop.Platform",
  "runtime-version": "23.08",
  "sdk": "org.freedesktop.Sdk",
  "command": "squared",
  "finish-args": [
    "--socket=pulseaudio",
    "--device=dri",
    "--share=ipc",
    "--socket=x11",
    "--persist=.local/share/godot/app_userdata/squared"
  ],
  "modules": [
    {
      "name": "squared",
      "buildsystem": "simple",
      "sources": [
        {
          "type": "file",
          "url": "https://gitlab.freedesktop.org/dabrain34/squared/uploads/f52198b93be7f495a85c9f8e70c34c5e/squared_x86_64",
          "sha256": "fd672ed5053a1a52998fa9a256347a2d91684a29fc061e4ba2d65c10919aa507"
        },
        {
          "type": "file",
          "url": "https://gitlab.freedesktop.org/dabrain34/squared/uploads/5fe7bf6de6f1d7a3c782822fd6b63732/data.pck",
          "sha256": "5c47b5b0555de0a511886ff2272c5b4fc3b8a4c3422df79005de9d3b4d448cb5"
        }
      ],
      "build-commands": [
        "install -Dm755 squared_x86_64 $FLATPAK_DEST/bin/squared",
        "install -Dm555 data.pck $FLATPAK_DEST/bin/data.pck"
      ]
    },
    {
      "name": "squared2",
      "buildsystem": "meson",
      "sources": [
        {
          "type": "archive",
          "url": "https://gitlab.freedesktop.org/dabrain34/squared/uploads/2c12efce847d3db39e9e32a8aacb7175/squared-0.1.0.tar.xz",
          "sha256": "a3dee30e42a9c983df7bfbacb4d43c66754fc4e1e82e875626c1cb57396321b7"
        }
      ]
    }
  ]
}